##TITLE= Audit trail, XWIN-NMR		Version 3.5
##JCAMPDX= 5.01
##ORIGIN= Bruker BioSpin GmbH
##OWNER= nmr
$$ E:/data/siblani/nmr/alginate/89/audita.txt
##AUDIT TRAIL=  $$ (NUMBER, WHEN, WHO, WHERE, WHAT)
(   1,<2013-02-05 08:43:06.40 +0100>,<nmr>,<LCS176N>,
      <created by zg, POWCHK disabled, PULCHK disabled
       configuration hash MD5:
       6A 7B D0 BD B4 83 14 84 DD C4 9E 5B D8 C2 D7 93
       data hash MD5: 4026
       ED 9B 3D DA A8 6A CE A2 3C 4D 5D B8 B0 A1 E0 76>)
##END=

$$ hash MD5
$$ 4A 2F 69 54 E7 E8 87 BB 5E B2 D9 F0 DE 00 FD C1
